{
  "accessToken": "",
  "country": "111",
  "province": "",
  "city": "",
  "area": "",
  "street": "",
  "address": "安定路",
  "receiverName": "zhang",
  "receiverTel": "13023696650",
  "signType": 1,
  "remark": ""
}